  ____                                             _            _____                          _     _                       
 |  _ \                                           | |          / ____|                        | |   (_)                      
 | |_) |  _   _   ___    __ _   _   _    ___    __| |   __ _  | |  __    ___   _ __     ___   | |_   _   _ __     ___    ___ 
 |  _ <  | | | | / __|  / _` | | | | |  / _ \  / _` |  / _` | | | |_ |  / _ \ | '_ \   / _ \  | __| | | | '_ \   / _ \  / __|
 | |_) | | |_| | \__ \ | (_| | | |_| | |  __/ | (_| | | (_| | | |__| | |  __/ | | | | | (_) | | |_  | | | |_) | | (_) | \__ \
 |____/   \__,_| |___/  \__, |  \__,_|  \___|  \__,_|  \__,_|  \_____|  \___| |_| |_|  \___/   \__| |_| | .__/   \___/  |___/
                           | |                                                                          | |                  
                           |_|